mc20_13TeV:mc20_13TeV.700168.Sh_2210_ttW.deriv.DAOD_PHYSLITE.e8273_e7400_s3797_r13144_r13146_p5855
mc20_13TeV:mc20_13TeV.700168.Sh_2210_ttW.deriv.DAOD_PHYSLITE.e8273_e7400_s3797_r13145_r13146_p5855
mc20_13TeV:mc20_13TeV.700168.Sh_2210_ttW.deriv.DAOD_PHYSLITE.e8273_e7400_s3797_r13167_r13146_p5855
mc20_13TeV:mc20_13TeV.410156.aMcAtNloPythia8EvtGen_MEN30NLO_A14N23LO_ttZnunu.deriv.DAOD_PHYSLITE.e5070_s3681_r13144_r13146_p5855
mc20_13TeV:mc20_13TeV.410156.aMcAtNloPythia8EvtGen_MEN30NLO_A14N23LO_ttZnunu.deriv.DAOD_PHYSLITE.e5070_s3681_r13145_r13146_p5855
mc20_13TeV:mc20_13TeV.410156.aMcAtNloPythia8EvtGen_MEN30NLO_A14N23LO_ttZnunu.deriv.DAOD_PHYSLITE.e5070_s3681_r13167_r13146_p5855
mc20_13TeV:mc20_13TeV.410157.aMcAtNloPythia8EvtGen_MEN30NLO_A14N23LO_ttZqq.deriv.DAOD_PHYSLITE.e5070_s3681_r13144_r13146_p5855
mc20_13TeV:mc20_13TeV.410157.aMcAtNloPythia8EvtGen_MEN30NLO_A14N23LO_ttZqq.deriv.DAOD_PHYSLITE.e5070_s3681_r13145_r13146_p5855
mc20_13TeV:mc20_13TeV.410157.aMcAtNloPythia8EvtGen_MEN30NLO_A14N23LO_ttZqq.deriv.DAOD_PHYSLITE.e5070_s3681_r13167_r13146_p5855
mc20_13TeV:mc20_13TeV.410218.aMcAtNloPythia8EvtGen_MEN30NLO_A14N23LO_ttee.deriv.DAOD_PHYSLITE.e5070_s3681_r13144_r13146_p5855
mc20_13TeV:mc20_13TeV.410218.aMcAtNloPythia8EvtGen_MEN30NLO_A14N23LO_ttee.deriv.DAOD_PHYSLITE.e5070_s3681_r13145_r13146_p5855
mc20_13TeV:mc20_13TeV.410218.aMcAtNloPythia8EvtGen_MEN30NLO_A14N23LO_ttee.deriv.DAOD_PHYSLITE.e5070_s3681_r13167_r13146_p5855
mc20_13TeV:mc20_13TeV.410219.aMcAtNloPythia8EvtGen_MEN30NLO_A14N23LO_ttmumu.deriv.DAOD_PHYSLITE.e5070_s3681_r13144_r13146_p5855
mc20_13TeV:mc20_13TeV.410219.aMcAtNloPythia8EvtGen_MEN30NLO_A14N23LO_ttmumu.deriv.DAOD_PHYSLITE.e5070_s3681_r13145_r13146_p5855
mc20_13TeV:mc20_13TeV.410219.aMcAtNloPythia8EvtGen_MEN30NLO_A14N23LO_ttmumu.deriv.DAOD_PHYSLITE.e5070_s3681_r13167_r13146_p5855
mc20_13TeV:mc20_13TeV.410220.aMcAtNloPythia8EvtGen_MEN30NLO_A14N23LO_tttautau.deriv.DAOD_PHYSLITE.e5070_s3681_r13144_r13146_p5855
mc20_13TeV:mc20_13TeV.410220.aMcAtNloPythia8EvtGen_MEN30NLO_A14N23LO_tttautau.deriv.DAOD_PHYSLITE.e5070_s3681_r13145_r13146_p5855
mc20_13TeV:mc20_13TeV.410220.aMcAtNloPythia8EvtGen_MEN30NLO_A14N23LO_tttautau.deriv.DAOD_PHYSLITE.e5070_s3681_r13167_r13146_p5855
